{
    "data": [
        {
            "name": "KB[stage][0][Backlog]",
            "color": "#F5F5F5"
        },
        {
            "name": "KB[stage][1][Development]",
            "color": "#F5F5F5"
        },
        {
            "name": "KB[stage][2][Testing]",
            "color": "#F5F5F5"
        },
        {
            "name": "KB[stage][3][Production]",
            "color": "#F5F5F5"
        },
        {
            "name": "KB[stage][4][Ready]",
            "color": "#F5F5F5"
        },
        {
            "name": "bug",
            "color": "#ff0000"
        },
        {
            "name": "discussion",
            "color": "#5843ad"
        },
        {
            "name": "feature",
            "color": "#5cb85c"
        }
    ]
}
